{
  "aggregation": {
    "overall": {
      "fast": 23,
      "average": 0,
      "poor": 0
    },
    "CLS": {
      "fast": 16,
      "average": 0,
      "poor": 0
    },
    "LCP": {
      "fast": 5,
      "average": 0,
      "poor": 0
    },
    "FID": {
      "fast": 2,
      "average": 0,
      "poor": 0
    }
  },
  "results": [
    {
      "URLList": [
        {
          "URL": "https://www.bbc.co.uk/",
          "actionList": [
            {
              "actionName": "goto",
              "CLS": {
                "value": 0.05839271838027264,
                "experience": "fast",
                "elements": [
                  {
                    "previousRect": {
                      "x": 0,
                      "y": 0,
                      "width": 1440,
                      "height": 40,
                      "top": 0,
                      "right": 1440,
                      "bottom": 40,
                      "left": 0
                    },
                    "cssSelector": "html > body > #root > div > #header-content > div:nth-child(2)",
                    "newLocation": {
                      "x": 0,
                      "y": 84,
                      "width": 1440,
                      "height": 40
                    }
                  },
                  {
                    "previousRect": {
                      "x": 0,
                      "y": 40,
                      "width": 1440,
                      "height": 68,
                      "top": 40,
                      "right": 1440,
                      "bottom": 108,
                      "left": 0
                    },
                    "cssSelector": "html > body > #root > div > #header-content > div:nth-child(3) > div",
                    "newLocation": {
                      "x": 0,
                      "y": 124,
                      "width": 1440,
                      "height": 68
                    }
                  },
                  {
                    "previousRect": {
                      "x": 0,
                      "y": 108,
                      "width": 1440,
                      "height": 792,
                      "top": 108,
                      "right": 1440,
                      "bottom": 900,
                      "left": 0
                    },
                    "cssSelector": "html > body > #root > div > #main-content",
                    "newLocation": {
                      "x": 0,
                      "y": 192,
                      "width": 1440,
                      "height": 8809.796875
                    }
                  },
                  {
                    "previousRect": {
                      "x": 80,
                      "y": 707,
                      "width": 1264,
                      "height": 194,
                      "top": 707,
                      "right": 1344,
                      "bottom": 901,
                      "left": 80
                    },
                    "cssSelector": "html > body > #root > div > #main-content > div:nth-child(1) > div:nth-child(3) > div > div > ul",
                    "newLocation": {
                      "x": 80,
                      "y": 790.5,
                      "width": 1264,
                      "height": 351.984375
                    }
                  },
                  {
                    "previousRect": {
                      "x": 93,
                      "y": 704,
                      "width": 411,
                      "height": 197,
                      "top": 704,
                      "right": 504,
                      "bottom": 901,
                      "left": 93
                    },
                    "cssSelector": "html > body > #root > div > #main-content > div:nth-child(1) > div:nth-child(3) > div > div > ul > li:nth-child(1) > div",
                    "newLocation": {
                      "x": 96,
                      "y": 790.5,
                      "width": 405.328125,
                      "height": 335.984375
                    }
                  }
                ]
              },
              "LSN": {
                "value": 0.058390361368312764,
                "max": 0.05839271838027264,
                "session": 0.05839271838027264,
                "experience": "fast",
                "elements": [
                  {
                    "cssSelector": "html > body > #root > div > #header-content > div:nth-child(2)",
                    "previousRect": {
                      "x": 0,
                      "y": 0,
                      "width": 1440,
                      "height": 40,
                      "top": 0,
                      "right": 1440,
                      "bottom": 40,
                      "left": 0
                    }
                  },
                  {
                    "cssSelector": "html > body > #root > div > #header-content > div:nth-child(3) > div",
                    "previousRect": {
                      "x": 0,
                      "y": 40,
                      "width": 1440,
                      "height": 68,
                      "top": 40,
                      "right": 1440,
                      "bottom": 108,
                      "left": 0
                    }
                  },
                  {
                    "cssSelector": "html > body > #root > div > #main-content",
                    "previousRect": {
                      "x": 0,
                      "y": 108,
                      "width": 1440,
                      "height": 792,
                      "top": 108,
                      "right": 1440,
                      "bottom": 900,
                      "left": 0
                    }
                  },
                  {
                    "cssSelector": "html > body > #root > div > #main-content > div:nth-child(1) > div:nth-child(3) > div > div > ul",
                    "previousRect": {
                      "x": 80,
                      "y": 707,
                      "width": 1264,
                      "height": 194,
                      "top": 707,
                      "right": 1344,
                      "bottom": 901,
                      "left": 80
                    }
                  },
                  {
                    "cssSelector": "html > body > #root > div > #main-content > div:nth-child(1) > div:nth-child(3) > div > div > ul > li:nth-child(1) > div",
                    "previousRect": {
                      "x": 93,
                      "y": 704,
                      "width": 411,
                      "height": 197,
                      "top": 704,
                      "right": 504,
                      "bottom": 901,
                      "left": 93
                    }
                  }
                ]
              },
              "LCP": {
                "value": 1023.675,
                "experience": "fast",
                "element": {
                  "cssSelector": "html > body > #root > div > #main-content > div:nth-child(1) > div:nth-child(3)",
                  "location": {
                    "x": 0,
                    "y": 714.5,
                    "width": 1440,
                    "height": 443.984375,
                    "top": 714.5,
                    "right": 1440,
                    "bottom": 1158.484375,
                    "left": 0
                  }
                }
              }
            },
            {
              "actionName": "InitialLoad",
              "FID": {
                "value": 3.57,
                "startTime": 1958,
                "experience": "fast"
              }
            }
          ],
          "CLS": {
            "value": 0.05839271838027264,
            "experience": "fast",
            "elements": [
              {
                "previousRect": {
                  "x": 0,
                  "y": 0,
                  "width": 1440,
                  "height": 40,
                  "top": 0,
                  "right": 1440,
                  "bottom": 40,
                  "left": 0
                },
                "cssSelector": "html > body > #root > div > #header-content > div:nth-child(2)",
                "newLocation": {
                  "x": 0,
                  "y": 84,
                  "width": 1440,
                  "height": 40
                }
              },
              {
                "previousRect": {
                  "x": 0,
                  "y": 40,
                  "width": 1440,
                  "height": 68,
                  "top": 40,
                  "right": 1440,
                  "bottom": 108,
                  "left": 0
                },
                "cssSelector": "html > body > #root > div > #header-content > div:nth-child(3) > div",
                "newLocation": {
                  "x": 0,
                  "y": 124,
                  "width": 1440,
                  "height": 68
                }
              },
              {
                "previousRect": {
                  "x": 0,
                  "y": 108,
                  "width": 1440,
                  "height": 792,
                  "top": 108,
                  "right": 1440,
                  "bottom": 900,
                  "left": 0
                },
                "cssSelector": "html > body > #root > div > #main-content",
                "newLocation": {
                  "x": 0,
                  "y": 192,
                  "width": 1440,
                  "height": 8809.796875
                }
              },
              {
                "previousRect": {
                  "x": 80,
                  "y": 707,
                  "width": 1264,
                  "height": 194,
                  "top": 707,
                  "right": 1344,
                  "bottom": 901,
                  "left": 80
                },
                "cssSelector": "html > body > #root > div > #main-content > div:nth-child(1) > div:nth-child(3) > div > div > ul",
                "newLocation": {
                  "x": 80,
                  "y": 790.5,
                  "width": 1264,
                  "height": 351.984375
                }
              },
              {
                "previousRect": {
                  "x": 93,
                  "y": 704,
                  "width": 411,
                  "height": 197,
                  "top": 704,
                  "right": 504,
                  "bottom": 901,
                  "left": 93
                },
                "cssSelector": "html > body > #root > div > #main-content > div:nth-child(1) > div:nth-child(3) > div > div > ul > li:nth-child(1) > div",
                "newLocation": {
                  "x": 96,
                  "y": 790.5,
                  "width": 405.328125,
                  "height": 335.984375
                }
              }
            ]
          },
          "LSN": {
            "value": 0.058390361368312764,
            "max": 0.05839271838027264,
            "session": 0.05839271838027264,
            "experience": "fast",
            "elements": [
              {
                "cssSelector": "html > body > #root > div > #header-content > div:nth-child(2)",
                "previousRect": {
                  "x": 0,
                  "y": 0,
                  "width": 1440,
                  "height": 40,
                  "top": 0,
                  "right": 1440,
                  "bottom": 40,
                  "left": 0
                }
              },
              {
                "cssSelector": "html > body > #root > div > #header-content > div:nth-child(3) > div",
                "previousRect": {
                  "x": 0,
                  "y": 40,
                  "width": 1440,
                  "height": 68,
                  "top": 40,
                  "right": 1440,
                  "bottom": 108,
                  "left": 0
                }
              },
              {
                "cssSelector": "html > body > #root > div > #main-content",
                "previousRect": {
                  "x": 0,
                  "y": 108,
                  "width": 1440,
                  "height": 792,
                  "top": 108,
                  "right": 1440,
                  "bottom": 900,
                  "left": 0
                }
              },
              {
                "cssSelector": "html > body > #root > div > #main-content > div:nth-child(1) > div:nth-child(3) > div > div > ul",
                "previousRect": {
                  "x": 80,
                  "y": 707,
                  "width": 1264,
                  "height": 194,
                  "top": 707,
                  "right": 1344,
                  "bottom": 901,
                  "left": 80
                }
              },
              {
                "cssSelector": "html > body > #root > div > #main-content > div:nth-child(1) > div:nth-child(3) > div > div > ul > li:nth-child(1) > div",
                "previousRect": {
                  "x": 93,
                  "y": 704,
                  "width": 411,
                  "height": 197,
                  "top": 704,
                  "right": 504,
                  "bottom": 901,
                  "left": 93
                }
              }
            ]
          },
          "LCP": {
            "value": 1023.675,
            "experience": "fast",
            "element": {
              "cssSelector": "html > body > #root > div > #main-content > div:nth-child(1) > div:nth-child(3)",
              "location": {
                "x": 0,
                "y": 630.5,
                "width": 1440,
                "height": 443.984375,
                "top": 630.5,
                "right": 1440,
                "bottom": 1074.484375,
                "left": 0
              }
            }
          },
          "navigationTimings": {
            "requestStart": 96.38000000268221,
            "responseStart": 123.95500001730397,
            "responseEnd": 172.03999997582287,
            "domInteractive": 374.91499999305233,
            "domContentLoadedEventStart": 726.3549999915995,
            "domContentLoadedEventEnd": 726.9349999842234,
            "domComplete": 1393.709999974817,
            "loadEventStart": 1397.1400000154972,
            "loadEventEnd": 1397.159999993164
          },
          "FID": {
            "value": 3.57,
            "startTime": 1958,
            "experience": "fast"
          }
        },
        {
          "URL": "https://www.bbc.co.uk/sport/live/football/54074600",
          "actionList": [
            {
              "actionName": "InitialLoad",
              "CLS": {
                "value": 0.051445987654320985,
                "experience": "fast",
                "elements": [
                  {
                    "previousRect": {
                      "x": 0,
                      "y": 0,
                      "width": 1440,
                      "height": 41,
                      "top": 0,
                      "right": 1440,
                      "bottom": 41,
                      "left": 0
                    },
                    "cssSelector": "html > body > #orb-banner > #orb-header",
                    "newLocation": {
                      "x": 0,
                      "y": 74,
                      "width": 1440,
                      "height": 40.5
                    }
                  },
                  {
                    "previousRect": {
                      "x": 0,
                      "y": 41,
                      "width": 1440,
                      "height": 860,
                      "top": 41,
                      "right": 1440,
                      "bottom": 901,
                      "left": 0
                    },
                    "cssSelector": "html > body > #orb-modules",
                    "newLocation": {
                      "x": 0,
                      "y": 114.5,
                      "width": 1440,
                      "height": 7774.1875
                    }
                  },
                  {
                    "previousRect": {
                      "x": 0,
                      "y": 0,
                      "width": 0,
                      "height": 0,
                      "top": 0,
                      "right": 0,
                      "bottom": 0,
                      "left": 0
                    },
                    "cssSelector": "html > body > #orb-modules > #u29899938335638376 > div > nav > div:nth-child(1) > div > #sp-nav-all-item",
                    "newLocation": {
                      "x": 1245.03125,
                      "y": 177.5,
                      "width": 98.96875,
                      "height": 32
                    }
                  },
                  {
                    "previousRect": {
                      "x": 112,
                      "y": 850,
                      "width": 268,
                      "height": 50,
                      "top": 850,
                      "right": 380,
                      "bottom": 900,
                      "left": 112
                    },
                    "cssSelector": "html > body > #orb-modules > #u8593954157384339 > #lx-page > div:nth-child(2) > div > div > aside > div > div > div > div > div > div > section > ol > li:nth-child(1)",
                    "newLocation": {
                      "x": 112,
                      "y": 924.171875,
                      "width": 268,
                      "height": 54
                    }
                  },
                  {
                    "previousRect": {
                      "x": 428,
                      "y": 884,
                      "width": 584,
                      "height": 16,
                      "top": 884,
                      "right": 1012,
                      "bottom": 900,
                      "left": 428
                    },
                    "cssSelector": "html > body > #orb-modules > #u8593954157384339 > #lx-page > div:nth-child(2) > div > div > div > div > div:nth-child(2) > div:nth-child(1) > #lx-tab-0 > div > div > #lx-commentary-top > div:nth-child(2) > #lx-stream > div:nth-child(2) > ol > li:nth-child(2) > #post_608860b3dcb43402eaf5ff75",
                    "newLocation": {
                      "x": 428,
                      "y": 958.171875,
                      "width": 583.984375,
                      "height": 254
                    }
                  }
                ]
              },
              "LSN": {
                "value": 0.051445987654320985,
                "max": 0.051445987654320985,
                "session": 0.051445987654320985,
                "experience": "fast",
                "elements": [
                  {
                    "cssSelector": "html > body > #orb-banner > #orb-header",
                    "previousRect": {
                      "x": 0,
                      "y": 0,
                      "width": 1440,
                      "height": 41,
                      "top": 0,
                      "right": 1440,
                      "bottom": 41,
                      "left": 0
                    }
                  },
                  {
                    "cssSelector": "html > body > #orb-modules",
                    "previousRect": {
                      "x": 0,
                      "y": 41,
                      "width": 1440,
                      "height": 860,
                      "top": 41,
                      "right": 1440,
                      "bottom": 901,
                      "left": 0
                    }
                  },
                  {
                    "cssSelector": "html > body > #orb-modules > #u29899938335638376 > div > nav > div:nth-child(1) > div > #sp-nav-all-item",
                    "previousRect": {
                      "x": 0,
                      "y": 0,
                      "width": 0,
                      "height": 0,
                      "top": 0,
                      "right": 0,
                      "bottom": 0,
                      "left": 0
                    }
                  },
                  {
                    "cssSelector": "html > body > #orb-modules > #u8593954157384339 > #lx-page > div:nth-child(2) > div > div > aside > div > div > div > div > div > div > section > ol > li:nth-child(1)",
                    "previousRect": {
                      "x": 112,
                      "y": 850,
                      "width": 268,
                      "height": 50,
                      "top": 850,
                      "right": 380,
                      "bottom": 900,
                      "left": 112
                    }
                  },
                  {
                    "cssSelector": "html > body > #orb-modules > #u8593954157384339 > #lx-page > div:nth-child(2) > div > div > div > div > div:nth-child(2) > div:nth-child(1) > #lx-tab-0 > div > div > #lx-commentary-top > div:nth-child(2) > #lx-stream > div:nth-child(2) > ol > li:nth-child(2) > #post_608860b3dcb43402eaf5ff75",
                    "previousRect": {
                      "x": 428,
                      "y": 884,
                      "width": 584,
                      "height": 16,
                      "top": 884,
                      "right": 1012,
                      "bottom": 900,
                      "left": 428
                    }
                  }
                ]
              },
              "LCP": {
                "value": 497.165,
                "experience": "fast",
                "element": {
                  "cssSelector": "html > body > #orb-modules > #u8593954157384339 > #lx-page > div:nth-child(1) > div:nth-child(2) > div:nth-child(1) > div > img",
                  "location": {
                    "x": 0,
                    "y": 281.5,
                    "width": 1440,
                    "height": 810,
                    "top": 281.5,
                    "right": 1440,
                    "bottom": 1091.5,
                    "left": 0
                  }
                }
              }
            },
            {
              "actionName": "ScrollDown",
              "CLS": {
                "value": 0,
                "experience": "fast"
              },
              "LSN": {
                "value": 0,
                "max": 0,
                "session": 0,
                "experience": "fast"
              }
            },
            {
              "actionName": "ScrollUp",
              "CLS": {
                "value": 0,
                "experience": "fast"
              },
              "LSN": {
                "value": 0,
                "max": 0,
                "session": 0,
                "experience": "fast"
              }
            }
          ],
          "CLS": {
            "value": 0.051445987654320985,
            "experience": "fast",
            "elements": [
              {
                "previousRect": {
                  "x": 0,
                  "y": 0,
                  "width": 1440,
                  "height": 41,
                  "top": 0,
                  "right": 1440,
                  "bottom": 41,
                  "left": 0
                },
                "cssSelector": "html > body > #orb-banner > #orb-header",
                "newLocation": {
                  "x": 0,
                  "y": 74,
                  "width": 1440,
                  "height": 40.5
                }
              },
              {
                "previousRect": {
                  "x": 0,
                  "y": 41,
                  "width": 1440,
                  "height": 860,
                  "top": 41,
                  "right": 1440,
                  "bottom": 901,
                  "left": 0
                },
                "cssSelector": "html > body > #orb-modules",
                "newLocation": {
                  "x": 0,
                  "y": 114.5,
                  "width": 1440,
                  "height": 7774.1875
                }
              },
              {
                "previousRect": {
                  "x": 0,
                  "y": 0,
                  "width": 0,
                  "height": 0,
                  "top": 0,
                  "right": 0,
                  "bottom": 0,
                  "left": 0
                },
                "cssSelector": "html > body > #orb-modules > #u29899938335638376 > div > nav > div:nth-child(1) > div > #sp-nav-all-item",
                "newLocation": {
                  "x": 1245.03125,
                  "y": 177.5,
                  "width": 98.96875,
                  "height": 32
                }
              },
              {
                "previousRect": {
                  "x": 112,
                  "y": 850,
                  "width": 268,
                  "height": 50,
                  "top": 850,
                  "right": 380,
                  "bottom": 900,
                  "left": 112
                },
                "cssSelector": "html > body > #orb-modules > #u8593954157384339 > #lx-page > div:nth-child(2) > div > div > aside > div > div > div > div > div > div > section > ol > li:nth-child(1)",
                "newLocation": {
                  "x": 112,
                  "y": 924.171875,
                  "width": 268,
                  "height": 54
                }
              },
              {
                "previousRect": {
                  "x": 428,
                  "y": 884,
                  "width": 584,
                  "height": 16,
                  "top": 884,
                  "right": 1012,
                  "bottom": 900,
                  "left": 428
                },
                "cssSelector": "html > body > #orb-modules > #u8593954157384339 > #lx-page > div:nth-child(2) > div > div > div > div > div:nth-child(2) > div:nth-child(1) > #lx-tab-0 > div > div > #lx-commentary-top > div:nth-child(2) > #lx-stream > div:nth-child(2) > ol > li:nth-child(2) > #post_608860b3dcb43402eaf5ff75",
                "newLocation": {
                  "x": 428,
                  "y": 958.171875,
                  "width": 583.984375,
                  "height": 254
                }
              }
            ]
          },
          "LSN": {
            "value": 0.051445987654320985,
            "max": 0.051445987654320985,
            "session": 0.051445987654320985,
            "experience": "fast",
            "elements": [
              {
                "cssSelector": "html > body > #orb-banner > #orb-header",
                "previousRect": {
                  "x": 0,
                  "y": 0,
                  "width": 1440,
                  "height": 41,
                  "top": 0,
                  "right": 1440,
                  "bottom": 41,
                  "left": 0
                }
              },
              {
                "cssSelector": "html > body > #orb-modules",
                "previousRect": {
                  "x": 0,
                  "y": 41,
                  "width": 1440,
                  "height": 860,
                  "top": 41,
                  "right": 1440,
                  "bottom": 901,
                  "left": 0
                }
              },
              {
                "cssSelector": "html > body > #orb-modules > #u29899938335638376 > div > nav > div:nth-child(1) > div > #sp-nav-all-item",
                "previousRect": {
                  "x": 0,
                  "y": 0,
                  "width": 0,
                  "height": 0,
                  "top": 0,
                  "right": 0,
                  "bottom": 0,
                  "left": 0
                }
              },
              {
                "cssSelector": "html > body > #orb-modules > #u8593954157384339 > #lx-page > div:nth-child(2) > div > div > aside > div > div > div > div > div > div > section > ol > li:nth-child(1)",
                "previousRect": {
                  "x": 112,
                  "y": 850,
                  "width": 268,
                  "height": 50,
                  "top": 850,
                  "right": 380,
                  "bottom": 900,
                  "left": 112
                }
              },
              {
                "cssSelector": "html > body > #orb-modules > #u8593954157384339 > #lx-page > div:nth-child(2) > div > div > div > div > div:nth-child(2) > div:nth-child(1) > #lx-tab-0 > div > div > #lx-commentary-top > div:nth-child(2) > #lx-stream > div:nth-child(2) > ol > li:nth-child(2) > #post_608860b3dcb43402eaf5ff75",
                "previousRect": {
                  "x": 428,
                  "y": 884,
                  "width": 584,
                  "height": 16,
                  "top": 884,
                  "right": 1012,
                  "bottom": 900,
                  "left": 428
                }
              }
            ]
          },
          "LCP": {
            "value": 497.165,
            "experience": "fast",
            "element": {
              "cssSelector": "html > body > #orb-modules > #u8593954157384339 > #lx-page > div:nth-child(1) > div:nth-child(2) > div:nth-child(1) > div > img",
              "location": {
                "x": 0,
                "y": 281.5,
                "width": 1440,
                "height": 810,
                "top": 281.5,
                "right": 1440,
                "bottom": 1091.5,
                "left": 0
              }
            }
          },
          "navigationTimings": {
            "requestStart": 7.964999997057021,
            "responseStart": 43.35500003071502,
            "responseEnd": 120.9849999868311,
            "domInteractive": 513.2500000181608,
            "domContentLoadedEventStart": 513.8150000129826,
            "domContentLoadedEventEnd": 521.3600000133738,
            "domComplete": 1473.050000029616,
            "loadEventStart": 1481.2699999893084,
            "loadEventEnd": 1538.9950000098906
          }
        }
      ],
      "name": "BBC",
      "tags": []
    },
    {
      "URLList": [
        {
          "URL": "https://www.dunelm.com/",
          "actionList": [
            {
              "actionName": "goto",
              "CLS": {
                "value": 0.02570502316824203,
                "experience": "fast",
                "elements": [
                  {
                    "previousRect": {
                      "x": 342,
                      "y": 715,
                      "width": 252,
                      "height": 185,
                      "top": 715,
                      "right": 594,
                      "bottom": 900,
                      "left": 342
                    },
                    "cssSelector": "html > body > #root > div > div:nth-child(5) > div:nth-child(2) > div > div > div > div:nth-child(3) > div > div:nth-child(2) > div > div > div > div:nth-child(2)",
                    "newLocation": {
                      "x": 405,
                      "y": 715,
                      "width": 315,
                      "height": 300
                    }
                  },
                  {
                    "previousRect": {
                      "x": 594,
                      "y": 715,
                      "width": 252,
                      "height": 185,
                      "top": 715,
                      "right": 846,
                      "bottom": 900,
                      "left": 594
                    },
                    "cssSelector": "html > body > #root > div > div:nth-child(5) > div:nth-child(2) > div > div > div > div:nth-child(3) > div > div:nth-child(2) > div > div > div > div:nth-child(3)",
                    "newLocation": {
                      "x": 720,
                      "y": 715,
                      "width": 315,
                      "height": 300
                    }
                  },
                  {
                    "previousRect": {
                      "x": 846,
                      "y": 715,
                      "width": 252,
                      "height": 185,
                      "top": 715,
                      "right": 1098,
                      "bottom": 900,
                      "left": 846
                    },
                    "cssSelector": "html > body > #root > div > div:nth-child(5) > div:nth-child(2) > div > div > div > div:nth-child(3) > div > div:nth-child(2) > div > div > div > div:nth-child(4)",
                    "newLocation": {
                      "x": 1035,
                      "y": 715,
                      "width": 315,
                      "height": 300
                    }
                  },
                  {
                    "previousRect": {
                      "x": 1098,
                      "y": 715,
                      "width": 252,
                      "height": 185,
                      "top": 715,
                      "right": 1350,
                      "bottom": 900,
                      "left": 1098
                    },
                    "cssSelector": "html > body > #root > div > div:nth-child(5) > div:nth-child(2) > div > div > div > div:nth-child(3) > div > div:nth-child(2) > div > div > div > div:nth-child(5)",
                    "newLocation": {
                      "x": 1350,
                      "y": 715,
                      "width": 315,
                      "height": 300
                    }
                  }
                ]
              },
              "LSN": {
                "value": 0,
                "max": 0,
                "session": 0,
                "experience": "fast"
              },
              "LCP": {
                "value": 725.955,
                "experience": "fast",
                "element": {
                  "cssSelector": "html > body > #root > div > div:nth-child(5) > div:nth-child(2) > div > div > div > div:nth-child(1) > div > div:nth-child(1) > picture > img",
                  "location": {
                    "x": 102,
                    "y": 243,
                    "width": 1236,
                    "height": 336,
                    "top": 243,
                    "right": 1338,
                    "bottom": 579,
                    "left": 102
                  }
                }
              }
            },
            {
              "actionName": "ScrollUp",
              "LCP": {
                "value": 725.955,
                "experience": "fast",
                "element": {
                  "cssSelector": "html > body > #root > div > div:nth-child(5) > div:nth-child(2) > div > div > div > div:nth-child(1) > div > div:nth-child(1) > picture > img",
                  "location": {
                    "x": 102,
                    "y": 243,
                    "width": 1236,
                    "height": 336,
                    "top": 243,
                    "right": 1338,
                    "bottom": 579,
                    "left": 102
                  }
                }
              },
              "CLS": {
                "value": 0,
                "experience": "fast"
              },
              "LSN": {
                "value": 0,
                "max": 0,
                "session": 0,
                "experience": "fast"
              }
            },
            {
              "actionName": "clickSearch",
              "CLS": {
                "value": 0,
                "experience": "fast"
              },
              "LSN": {
                "value": 0,
                "max": 0,
                "session": 0,
                "experience": "fast"
              },
              "LCP": {
                "value": 725.955,
                "experience": "fast",
                "element": {
                  "cssSelector": "html > body > #root > div > div:nth-child(5) > div:nth-child(2) > div > div > div > div:nth-child(1) > div > div:nth-child(1) > picture > img",
                  "location": {
                    "x": 102,
                    "y": 243,
                    "width": 1236,
                    "height": 336,
                    "top": 243,
                    "right": 1338,
                    "bottom": 579,
                    "left": 102
                  }
                }
              },
              "FID": {
                "value": 5.48,
                "startTime": 2755,
                "experience": "fast"
              }
            },
            {
              "actionName": "ScrollDown",
              "CLS": {
                "value": 0,
                "experience": "fast"
              },
              "LSN": {
                "value": 0,
                "max": 0,
                "session": 0,
                "experience": "fast"
              }
            }
          ],
          "CLS": {
            "value": 0.02570502316824203,
            "experience": "fast",
            "elements": [
              {
                "previousRect": {
                  "x": 342,
                  "y": 715,
                  "width": 252,
                  "height": 185,
                  "top": 715,
                  "right": 594,
                  "bottom": 900,
                  "left": 342
                },
                "cssSelector": "html > body > #root > div > div:nth-child(5) > div:nth-child(2) > div > div > div > div:nth-child(3) > div > div:nth-child(2) > div > div > div > div:nth-child(2)",
                "newLocation": {
                  "x": 405,
                  "y": 715,
                  "width": 315,
                  "height": 300
                }
              },
              {
                "previousRect": {
                  "x": 594,
                  "y": 715,
                  "width": 252,
                  "height": 185,
                  "top": 715,
                  "right": 846,
                  "bottom": 900,
                  "left": 594
                },
                "cssSelector": "html > body > #root > div > div:nth-child(5) > div:nth-child(2) > div > div > div > div:nth-child(3) > div > div:nth-child(2) > div > div > div > div:nth-child(3)",
                "newLocation": {
                  "x": 720,
                  "y": 715,
                  "width": 315,
                  "height": 300
                }
              },
              {
                "previousRect": {
                  "x": 846,
                  "y": 715,
                  "width": 252,
                  "height": 185,
                  "top": 715,
                  "right": 1098,
                  "bottom": 900,
                  "left": 846
                },
                "cssSelector": "html > body > #root > div > div:nth-child(5) > div:nth-child(2) > div > div > div > div:nth-child(3) > div > div:nth-child(2) > div > div > div > div:nth-child(4)",
                "newLocation": {
                  "x": 1035,
                  "y": 715,
                  "width": 315,
                  "height": 300
                }
              },
              {
                "previousRect": {
                  "x": 1098,
                  "y": 715,
                  "width": 252,
                  "height": 185,
                  "top": 715,
                  "right": 1350,
                  "bottom": 900,
                  "left": 1098
                },
                "cssSelector": "html > body > #root > div > div:nth-child(5) > div:nth-child(2) > div > div > div > div:nth-child(3) > div > div:nth-child(2) > div > div > div > div:nth-child(5)",
                "newLocation": {
                  "x": 1350,
                  "y": 715,
                  "width": 315,
                  "height": 300
                }
              }
            ]
          },
          "LSN": {
            "value": 0,
            "max": 0,
            "session": 0,
            "experience": "fast"
          },
          "LCP": {
            "value": 725.955,
            "experience": "fast",
            "element": {
              "cssSelector": "html > body > #root > div > div:nth-child(5) > div:nth-child(2) > div > div > div > div:nth-child(1) > div > div:nth-child(1) > picture > img",
              "location": {
                "x": 102,
                "y": 243,
                "width": 1236,
                "height": 336,
                "top": 243,
                "right": 1338,
                "bottom": 579,
                "left": 102
              }
            }
          },
          "navigationTimings": {
            "requestStart": 79.01000004494563,
            "responseStart": 121.99000001419336,
            "responseEnd": 142.1400000108406,
            "domInteractive": 680.0350000266917,
            "domContentLoadedEventStart": 680.0800000200979,
            "domContentLoadedEventEnd": 681.1450000386685,
            "domComplete": 1610.0600000354461,
            "loadEventStart": 1610.240000009071,
            "loadEventEnd": 1618.735000025481
          },
          "FID": {
            "value": 5.48,
            "startTime": 2755,
            "experience": "fast"
          }
        }
      ],
      "name": "Dunelm",
      "tags": []
    }
  ]
}